CD_DA
CD_TEXT {
  LANGUAGE_MAP {
    0 : EN
  }
  LANGUAGE 0 {
    TITLE "Aleatoires"
    PERFORMER "Gregory DAVID"
  }
}

TRACK AUDIO
COPY
NO PRE_EMPHASIS
CD_TEXT {
  LANGUAGE 0 {
     TITLE "path1"
     PERFORMER ""
  }
}
FILE "2005-Aleatoires-Path_1-4-Gregory_DAVID-Copyleft_Licence_Art_Libre.wav"  00:00:00 02:39:74
START 00:00:00

TRACK AUDIO
COPY
NO PRE_EMPHASIS
CD_TEXT {
  LANGUAGE 0 {
     TITLE "path2"
     PERFORMER ""
  }
}
FILE "2005-Aleatoires-Path_1-4-Gregory_DAVID-Copyleft_Licence_Art_Libre.wav"  02:39:74 06:43:04
START 00:00:00

TRACK AUDIO
COPY
NO PRE_EMPHASIS
CD_TEXT {
  LANGUAGE 0 {
     TITLE "path3"
     PERFORMER ""
  }
}
FILE "2005-Aleatoires-Path_1-4-Gregory_DAVID-Copyleft_Licence_Art_Libre.wav"  09:23:03 05:32:18
START 00:00:00

TRACK AUDIO
COPY
NO PRE_EMPHASIS
CD_TEXT {
  LANGUAGE 0 {
     TITLE "path4"
     PERFORMER ""
  }
}
FILE "2005-Aleatoires-Path_1-4-Gregory_DAVID-Copyleft_Licence_Art_Libre.wav"  14:55:21 03:45:53
START 00:00:00
